%YAML 1.1
%TAG !u! tag:unity3d.com,2011:
--- !u!1045 &1
EditorBuildSettings:
  m_ObjectHideFlags: 0
  serializedVersion: 2
  m_Scenes:
  - enabled: 1
    path: Assets/Scenes/Other/MenuScene.unity
    guid: 867f00e50209ae94e958486c0b1bb1d1
  - enabled: 1
    path: Assets/Scenes/Levels/FirstLevelFix.unity
    guid: d6290f08441fa0a46bc8e6c6e69a0bc5
  - enabled: 1
    path: Assets/Scenes/Levels/SecondLevel.unity
    guid: 8717f226f971d2c46b9db2af931a7e20
  - enabled: 1
    path: Assets/Scenes/Levels/ThirdLevel.unity
    guid: 528493983aaf80b499337aa85f7f00a9
  - enabled: 1
    path: Assets/Scenes/Levels/CompleteLevel.unity
    guid: f2099bd2e32d81c47a19462cfb413440
  - enabled: 1
    path: Assets/Scenes/Levels/CompleteLevelGlace.unity
    guid: 07c790568ca78804ba754fef7c549598
  - enabled: 1
    path: Assets/Scenes/Levels/CompleteLevelFire.unity
    guid: 543235ae92861a24996d55c45085f964
  m_configObjects: {}
