%YAML 1.1
%TAG !u! tag:unity3d.com,2011:
--- !u!1001 &100100000
Prefab:
  m_ObjectHideFlags: 1
  serializedVersion: 2
  m_Modification:
    m_TransformParent: {fileID: 0}
    m_Modifications: []
    m_RemovedComponents: []
  m_SourcePrefab: {fileID: 0}
  m_RootGameObject: {fileID: 1143013019221552}
  m_IsPrefabAsset: 1
--- !u!1 &1143013019221552
GameObject:
  m_ObjectHideFlags: 0
  m_CorrespondingSourceObject: {fileID: 0}
  m_PrefabInternal: {fileID: 100100000}
  serializedVersion: 6
  m_Component:
  - component: {fileID: 4801601609984872}
  - component: {fileID: 33245479000456648}
  - component: {fileID: 23443582690407862}
  m_Layer: 0
  m_Name: Assassin
  m_TagString: Untagged
  m_Icon: {fileID: 0}
  m_NavMeshLayer: 0
  m_StaticEditorFlags: 0
  m_IsActive: 1
--- !u!4 &4801601609984872
Transform:
  m_ObjectHideFlags: 1
  m_CorrespondingSourceObject: {fileID: 0}
  m_PrefabInternal: {fileID: 100100000}
  m_GameObject: {fileID: 1143013019221552}
  m_LocalRotation: {x: 0.000000081460335, y: -0, z: -0, w: 1}
  m_LocalPosition: {x: 25.32, y: 0.65, z: 6.02}
  m_LocalScale: {x: 75, y: 75, z: 75}
  m_Children: []
  m_Father: {fileID: 0}
  m_RootOrder: 0
  m_LocalEulerAnglesHint: {x: 0, y: 0, z: 0}
--- !u!23 &23443582690407862
MeshRenderer:
  m_ObjectHideFlags: 1
  m_CorrespondingSourceObject: {fileID: 0}
  m_PrefabInternal: {fileID: 100100000}
  m_GameObject: {fileID: 1143013019221552}
  m_Enabled: 1
  m_CastShadows: 1
  m_ReceiveShadows: 1
  m_DynamicOccludee: 1
  m_MotionVectors: 1
  m_LightProbeUsage: 1
  m_ReflectionProbeUsage: 1
  m_RenderingLayerMask: 4294967295
  m_Materials:
  - {fileID: 2100000, guid: b04da87166b919c4f8afaa9f4936a6e7, type: 3}
  - {fileID: 2100002, guid: b04da87166b919c4f8afaa9f4936a6e7, type: 3}
  - {fileID: 2100004, guid: b04da87166b919c4f8afaa9f4936a6e7, type: 3}
  - {fileID: 2100006, guid: b04da87166b919c4f8afaa9f4936a6e7, type: 3}
  - {fileID: 2100008, guid: b04da87166b919c4f8afaa9f4936a6e7, type: 3}
  - {fileID: 2100010, guid: b04da87166b919c4f8afaa9f4936a6e7, type: 3}
  - {fileID: 2100012, guid: b04da87166b919c4f8afaa9f4936a6e7, type: 3}
  - {fileID: 2100014, guid: b04da87166b919c4f8afaa9f4936a6e7, type: 3}
  m_StaticBatchInfo:
    firstSubMesh: 0
    subMeshCount: 0
  m_StaticBatchRoot: {fileID: 0}
  m_ProbeAnchor: {fileID: 0}
  m_LightProbeVolumeOverride: {fileID: 0}
  m_ScaleInLightmap: 1
  m_PreserveUVs: 0
  m_IgnoreNormalsForChartDetection: 0
  m_ImportantGI: 0
  m_StitchLightmapSeams: 0
  m_SelectedEditorRenderState: 3
  m_MinimumChartSize: 4
  m_AutoUVMaxDistance: 0.5
  m_AutoUVMaxAngle: 89
  m_LightmapParameters: {fileID: 0}
  m_SortingLayerID: 0
  m_SortingLayer: 0
  m_SortingOrder: 0
--- !u!33 &33245479000456648
MeshFilter:
  m_ObjectHideFlags: 1
  m_CorrespondingSourceObject: {fileID: 0}
  m_PrefabInternal: {fileID: 100100000}
  m_GameObject: {fileID: 1143013019221552}
  m_Mesh: {fileID: 4300000, guid: b04da87166b919c4f8afaa9f4936a6e7, type: 3}
